%!PS-Adobe-2.0 EPSF-2.0
%%Title: ClassName
%%Creator: Doxygen
%%CreationDate: Time
%%For: 
%Magnification: 1.00
%%Orientation: Portrait
%%BoundingBox: 0 0 500 749.354004
%%Pages: 0
%%BeginSetup
%%EndSetup
%%EndComments

% ----- variables -----

/boxwidth 0 def
/boxheight 40 def
/fontheight 24 def
/marginwidth 10 def
/distx 20 def
/disty 40 def
/boundaspect 0.667241 def  % aspect ratio of the BoundingBox (width/height)
/boundx 500 def
/boundy boundx boundaspect div def
/xspacing 0 def
/yspacing 0 def
/rows 29 def
/cols 2 def
/scalefactor 0 def
/boxfont /Times-Roman findfont fontheight scalefont def

% ----- procedures -----

/dotted { [1 4] 0 setdash } def
/dashed { [5] 0 setdash } def
/solid  { [] 0 setdash } def

/max % result = MAX(arg1,arg2)
{
  /a exch def
  /b exch def
  a b gt {a} {b} ifelse
} def

/xoffset % result = MAX(0,(scalefactor-(boxwidth*cols+distx*(cols-1)))/2)
{
  0 scalefactor boxwidth cols mul distx cols 1 sub mul add sub 2 div max
} def

/cw % boxwidth = MAX(boxwidth, stringwidth(arg1))
{
  /str exch def
  /boxwidth boxwidth str stringwidth pop max def
} def

/box % draws a box with text 'arg1' at grid pos (arg2,arg3)
{ gsave
  2 setlinewidth
  newpath
  exch xspacing mul xoffset add
  exch yspacing mul
  moveto
  boxwidth 0 rlineto 
  0 boxheight rlineto 
  boxwidth neg 0 rlineto 
  0 boxheight neg rlineto 
  closepath
  dup stringwidth pop neg boxwidth add 2 div
  boxheight fontheight 2 div sub 2 div
  rmoveto show stroke
  grestore
} def  

/mark
{ newpath
  exch xspacing mul xoffset add boxwidth add
  exch yspacing mul
  moveto
  0 boxheight 4 div rlineto
  boxheight neg 4 div boxheight neg 4 div rlineto
  closepath
  eofill
  stroke
} def

/arrow
{ newpath
  moveto
  3 -8 rlineto
  -6 0 rlineto
  3 8 rlineto
  closepath
  eofill
  stroke
} def

/out % draws an output connector for the block at (arg1,arg2)
{
  newpath
  exch xspacing mul xoffset add boxwidth 2 div add
  exch yspacing mul boxheight add
  /y exch def
  /x exch def
  x y moveto
  0 disty 2 div rlineto 
  stroke
  1 eq { x y disty 2 div add arrow } if
} def

/in % draws an input connector for the block at (arg1,arg2)
{
  newpath
  exch xspacing mul xoffset add boxwidth 2 div add
  exch yspacing mul disty 2 div sub
  /y exch def
  /x exch def
  x y moveto
  0 disty 2 div rlineto
  stroke
  1 eq { x y disty 2 div add arrow } if
} def

/hedge
{
  exch xspacing mul xoffset add boxwidth 2 div add
  exch yspacing mul boxheight 2 div sub
  /y exch def
  /x exch def
  newpath
  x y moveto
  boxwidth 2 div distx add 0 rlineto
  stroke
  1 eq
  { newpath x boxwidth 2 div distx add add y moveto
    -8 3 rlineto
    0 -6 rlineto
    8 3 rlineto
    closepath
    eofill
    stroke
  } if
} def

/vedge
{
  /ye exch def
  /ys exch def
  /xs exch def
  newpath
  xs xspacing mul xoffset add boxwidth 2 div add dup
  ys yspacing mul boxheight 2 div sub
  moveto
  ye yspacing mul boxheight 2 div sub
  lineto
  stroke
} def

/conn % connections the blocks from col 'arg1' to 'arg2' of row 'arg3'
{
  /ys exch def
  /xe exch def
  /xs exch def
  newpath
  xs xspacing mul xoffset add boxwidth 2 div add
  ys yspacing mul disty 2 div sub
  moveto
  xspacing xe xs sub mul 0
  rlineto
  stroke
} def

% ----- main ------

boxfont setfont
1 boundaspect scale
(pafera.modelbase.ModelBase) cw
(object) cw
(learn.answer.learn_answer) cw
(learn.card.learn_card) cw
(learn.challenge.learn_challenge) cw
(learn.challengeresult.learn_challengeresult) cw
(learn.classgrade.learn_classgrade) cw
(learn.problem.learn_problem) cw
(learn.school.learn_school) cw
(learn.schooladministrator.learn_schooladministrator) cw
(learn.schoolclass.learn_schoolclass) cw
(learn.schoolsystemadministrator.learn_schoolsystemadministrator) cw
(learn.student.learn_student) cw
(learn.studylist.learn_studylist) cw
(learn.teacher.learn_teacher) cw
(pafera.db.system_acl) cw
(pafera.db.system_changelog) cw
(pafera.db.system_config) cw
(pafera.db.system_objtype) cw
(pafera.db.system_tag) cw
(system.file.system_file) cw
(system.group.system_group) cw
(system.loginattempt.system_loginattempt) cw
(system.newuser.system_newuser) cw
(system.page.system_page) cw
(system.page.system_pagefragment) cw
(system.session.system_session) cw
(system.session.system_useragent) cw
(system.user.system_user) cw
/boxwidth boxwidth marginwidth 2 mul add def
/xspacing boxwidth distx add def
/yspacing boxheight disty add def
/scalefactor 
  boxwidth cols mul distx cols 1 sub mul add
  boxheight rows mul disty rows 1 sub mul add boundaspect mul 
  max def
boundx scalefactor div boundy scalefactor div scale

% ----- classes -----

 (pafera.modelbase.ModelBase) 0.000000 27.000000 box
 (object) 0.000000 28.000000 box
 (learn.answer.learn_answer) 1.000000 26.000000 box
 (learn.card.learn_card) 1.000000 25.000000 box
 (learn.challenge.learn_challenge) 1.000000 24.000000 box
 (learn.challengeresult.learn_challengeresult) 1.000000 23.000000 box
 (learn.classgrade.learn_classgrade) 1.000000 22.000000 box
 (learn.problem.learn_problem) 1.000000 21.000000 box
 (learn.school.learn_school) 1.000000 20.000000 box
 (learn.schooladministrator.learn_schooladministrator) 1.000000 19.000000 box
 (learn.schoolclass.learn_schoolclass) 1.000000 18.000000 box
 (learn.schoolsystemadministrator.learn_schoolsystemadministrator) 1.000000 17.000000 box
 (learn.student.learn_student) 1.000000 16.000000 box
 (learn.studylist.learn_studylist) 1.000000 15.000000 box
 (learn.teacher.learn_teacher) 1.000000 14.000000 box
 (pafera.db.system_acl) 1.000000 13.000000 box
 (pafera.db.system_changelog) 1.000000 12.000000 box
 (pafera.db.system_config) 1.000000 11.000000 box
 (pafera.db.system_objtype) 1.000000 10.000000 box
 (pafera.db.system_tag) 1.000000 9.000000 box
 (system.file.system_file) 1.000000 8.000000 box
 (system.group.system_group) 1.000000 7.000000 box
 (system.loginattempt.system_loginattempt) 1.000000 6.000000 box
 (system.newuser.system_newuser) 1.000000 5.000000 box
 (system.page.system_page) 1.000000 4.000000 box
 (system.page.system_pagefragment) 1.000000 3.000000 box
 (system.session.system_session) 1.000000 2.000000 box
 (system.session.system_useragent) 1.000000 1.000000 box
 (system.user.system_user) 1.000000 0.000000 box

% ----- relations -----

solid
0 0.000000 27.000000 out
solid
1 0.000000 28.000000 in
solid
1 0.000000 26.250000 out
solid
0 0.000000 26.500000 hedge
solid
0 0.000000 25.500000 hedge
solid
0 0.000000 24.500000 hedge
solid
0 0.000000 23.500000 hedge
solid
0 0.000000 22.500000 hedge
solid
0 0.000000 21.500000 hedge
solid
0 0.000000 20.500000 hedge
solid
0 0.000000 19.500000 hedge
solid
0 0.000000 18.500000 hedge
solid
0 0.000000 17.500000 hedge
solid
0 0.000000 16.500000 hedge
solid
0 0.000000 15.500000 hedge
solid
0 0.000000 14.500000 hedge
solid
0 0.000000 13.500000 hedge
solid
0 0.000000 12.500000 hedge
solid
0 0.000000 11.500000 hedge
solid
0 0.000000 10.500000 hedge
solid
0 0.000000 9.500000 hedge
solid
0 0.000000 8.500000 hedge
solid
0 0.000000 7.500000 hedge
solid
0 0.000000 6.500000 hedge
solid
0 0.000000 5.500000 hedge
solid
0 0.000000 4.500000 hedge
solid
0 0.000000 3.500000 hedge
solid
0 0.000000 2.500000 hedge
solid
0 0.000000 1.500000 hedge
solid
0 0.000000 0.500000 hedge
solid
0.000000 27.000000 0.500000 vedge
